Machine Learning Analysis
…
#create recipe for data and fitting and make dummy variables
BT_rec <- recipe(BodyTemp ~ ., data = train_data) %>% step_dummy(all_nominal())

#workflow set up
BT_wflow <- 
  workflow() %>% add_model(lm_mod) %>% add_recipe(BT_rec)

#use workflow to prepare recipe and train model with predictors
BT_fit <- 
  BT_wflow %>% fit(data = train_data)

#extract model coefficient
BT_fit %>% extract_fit_parsnip() %>% tidy()

## # A tibble: 32 × 5
##    term                  estimate std.error statistic   p.value
##    <chr>                    <dbl>     <dbl>     <dbl>     <dbl>
##  1 (Intercept)            98.4        0.294   334.    0        
##  2 SwollenLymphNodes_Yes  -0.140      0.112    -1.25  0.211    
##  3 ChestCongestion_Yes     0.193      0.116     1.66  0.0972   
##  4 ChillsSweats_Yes        0.185      0.155     1.19  0.234    
##  5 NasalCongestion_Yes    -0.275      0.137    -2.00  0.0456   
##  6 Sneeze_Yes             -0.469      0.118    -3.96  0.0000855
##  7 Fatigue_Yes             0.278      0.204     1.37  0.173    
##  8 SubjectiveFever_Yes     0.483      0.123     3.92  0.000103 
##  9 Headache_Yes           -0.0169     0.150    -0.112 0.911    
## 10 Weakness_1              0.370      0.194     1.91  0.0569   
## # … with 22 more rows
…
## Decision Tree Model Specification (regression)
## 
## Main Arguments:
##   cost_complexity = tune()
##   tree_depth = tune()
## 
## Computational engine: rpart

#tuning grid specification
tree_grid <- grid_regular(cost_complexity(),
                          tree_depth(),
                          levels = 5)
tree_grid

## # A tibble: 25 × 2
##    cost_complexity tree_depth
##              <dbl>      <int>
##  1    0.0000000001          1
##  2    0.0000000178          1
##  3    0.00000316            1
##  4    0.000562              1
##  5    0.1                   1
##  6    0.0000000001          4
##  7    0.0000000178          4
##  8    0.00000316            4
##  9    0.000562              4
## 10    0.1                   4
## # … with 15 more rows
…
## ! Fold05: internal: A correlation computation is required, but `estimate` is const...

## ! Fold06: internal: A correlation computation is required, but `estimate` is const...

## ! Fold07: internal: A correlation computation is required, but `estimate` is const...

## ! Fold08: internal: A correlation computation is required, but `estimate` is const...

## ! Fold09: internal: A correlation computation is required, but `estimate` is const...

## ! Fold10: internal: A correlation computation is required, but `estimate` is const...

tree_res %>% collect_metrics()

## # A tibble: 50 × 8
##    cost_complexity tree_depth .metric .estimator     mean     n  std_err .config
##              <dbl>      <int> <chr>   <chr>         <dbl> <int>    <dbl> <chr>  
##  1    0.0000000001          1 rmse    standard     1.19      10  0.0531  Prepro…
##  2    0.0000000001          1 rsq     standard     0.0289    10  0.00760 Prepro…
##  3    0.0000000178          1 rmse    standard     1.19      10  0.0531  Prepro…
##  4    0.0000000178          1 rsq     standard     0.0289    10  0.00760 Prepro…
##  5    0.00000316            1 rmse    standard     1.19      10  0.0531  Prepro…
##  6    0.00000316            1 rsq     standard     0.0289    10  0.00760 Prepro…
##  7    0.000562              1 rmse    standard     1.19      10  0.0531  Prepro…
##  8    0.000562              1 rsq     standard     0.0289    10  0.00760 Prepro…
##  9    0.1                   1 rmse    standard     1.20      10  0.0558  Prepro…
## 10    0.1                   1 rsq     standard   NaN          0 NA       Prepro…
## # … with 40 more rows
…
#set workflow
lasso_wf <- workflow() %>% add_model(lasso) %>% add_recipe(BT_rec)

#tuning grid specification
lasso_grid <- tibble(penalty = 10^seq(-3, 0, length.out = 30))

#tuning with CV and tune_grid
lasso_res <- lasso_wf %>% tune_grid(resamples = cell_folds, 
                                    grid = lasso_grid, 
                                    control = control_grid(save_pred = TRUE), 
                                    metrics = metric_set(rmse))
#view model metrics
lasso_res %>% collect_metrics()

## # A tibble: 30 × 7
##    penalty .metric .estimator  mean     n std_err .config              
##      <dbl> <chr>   <chr>      <dbl> <int>   <dbl> <chr>                
##  1 0.001   rmse    standard    1.16    10  0.0481 Preprocessor1_Model01
##  2 0.00127 rmse    standard    1.16    10  0.0482 Preprocessor1_Model02
##  3 0.00161 rmse    standard    1.16    10  0.0482 Preprocessor1_Model03
##  4 0.00204 rmse    standard    1.16    10  0.0482 Preprocessor1_Model04
##  5 0.00259 rmse    standard    1.16    10  0.0483 Preprocessor1_Model05
##  6 0.00329 rmse    standard    1.16    10  0.0484 Preprocessor1_Model06
##  7 0.00418 rmse    standard    1.16    10  0.0484 Preprocessor1_Model07
##  8 0.00530 rmse    standard    1.16    10  0.0485 Preprocessor1_Model08
##  9 0.00672 rmse    standard    1.16    10  0.0487 Preprocessor1_Model09
## 10 0.00853 rmse    standard    1.16    10  0.0488 Preprocessor1_Model10
## # … with 20 more rows
…
