Tidy Tuesday
…
Grouping data

cleandata %>% group_by(title)

## # A tibble: 128,565 × 8
## # Groups:   title [28,937]
##    catalogue_group  year month title  author name  program_desc program_category
##    <chr>           <int> <int> <chr>  <chr>  <chr> <chr>        <chr>           
##  1 General          1975     3 Varia… 2      Robe… Economic Fl… Macro/Internati…
##  2 General          1975     5 Expor… 1      Merl… Internation… Macro/Internati…
##  3 General          1975     5 Expor… 1      Merl… Internation… Macro/Internati…
##  4 General          1975     5 Expor… 2      Robe… Internation… Macro/Internati…
##  5 General          1975     5 Expor… 2      Robe… Internation… Macro/Internati…
##  6 General          1975    10 Socia… 1      Mich… Public Econ… Micro           
##  7 General          1975    11 Notes… 1      Mich… Public Econ… Micro           
##  8 General          1980     4 Job M… 1      Ann … Labor Studi… Micro           
##  9 General          1976     3 A Sur… 1      Mich… Health Econ… Micro           
## 10 General          1976     3 Expor… 1      Merl… Internation… Macro/Internati…
## # … with 128,555 more rows
…
