Tidy Tuesday Exercise 2
…
#workflow set up
rank_wflow <- 
  workflow() %>% add_model(lm_mod) %>% add_recipe(rank_rec)

#use workflow to prepare recipe and train model with predictors
rank_fit <- 
  rank_wflow %>% fit(data = train_data)

#extract model coefficient
rank_fit %>% extract_fit_parsnip() %>% tidy()

## # A tibble: 77 × 5
##    term              estimate std.error statistic  p.value
##    <chr>                <dbl>     <dbl>     <dbl>    <dbl>
##  1 (Intercept)    -142293.    7190.        -19.8  4.84e-40
##  2 date                 7.72     0.390      19.8  4.43e-40
##  3 time_s               0.902    0.0607     14.9  3.07e-29
##  4 track_length_m      82.7      6.78       12.2  6.34e-23
##  5 number_laps        168.       9.77       17.1  2.18e-34
##  6 avg_time_lap         0.740    0.662       1.12 2.66e- 1
##  7 avg_speed         -123.      36.0        -3.41 8.82e- 4
##  8 dist               -17.2      0.983     -17.5  3.99e-35
##  9 race_S1Q2         -140.       8.40      -16.7  2.29e-33
## 10 race_S1Q3          -32.9      4.07       -8.10 4.56e-13
## # … with 67 more rows
…
## Decision Tree Model Specification (regression)
## 
## Main Arguments:
##   cost_complexity = tune()
##   tree_depth = tune()
## 
## Computational engine: rpart

#tuning grid specification
tree_grid <- grid_regular(cost_complexity(),
                          tree_depth(),
                          levels = 5)
tree_grid

## # A tibble: 25 × 2
##    cost_complexity tree_depth
##              <dbl>      <int>
##  1    0.0000000001          1
##  2    0.0000000178          1
##  3    0.00000316            1
##  4    0.000562              1
##  5    0.1                   1
##  6    0.0000000001          4
##  7    0.0000000178          4
##  8    0.00000316            4
##  9    0.000562              4
## 10    0.1                   4
## # … with 15 more rows
…
## ! Fold4, Repeat4: preprocessor 1/1, model 25/25 (predictions): There are new levels in a f...

## ! Fold4, Repeat4: internal: A correlation computation is required, but `estimate` is const...

## ! Fold1, Repeat5: internal: A correlation computation is required, but `estimate` is const...

## ! Fold2, Repeat5: internal: A correlation computation is required, but `estimate` is const...

## ! Fold3, Repeat5: internal: A correlation computation is required, but `estimate` is const...

## ! Fold5, Repeat5: internal: A correlation computation is required, but `estimate` is const...

tree_res %>% collect_metrics()

## # A tibble: 50 × 8
##    cost_complexity tree_depth .metric .estimator   mean     n std_err .config   
##              <dbl>      <int> <chr>   <chr>       <dbl> <int>   <dbl> <chr>     
##  1    0.0000000001          1 rmse    standard   4.64      25 0.0392  Preproces…
##  2    0.0000000001          1 rsq     standard   0.0369    25 0.00806 Preproces…
##  3    0.0000000178          1 rmse    standard   4.64      25 0.0392  Preproces…
##  4    0.0000000178          1 rsq     standard   0.0369    25 0.00806 Preproces…
##  5    0.00000316            1 rmse    standard   4.64      25 0.0392  Preproces…
##  6    0.00000316            1 rsq     standard   0.0369    25 0.00806 Preproces…
##  7    0.000562              1 rmse    standard   4.64      25 0.0392  Preproces…
##  8    0.000562              1 rsq     standard   0.0369    25 0.00806 Preproces…
##  9    0.1                   1 rmse    standard   4.67      25 0.0306  Preproces…
## 10    0.1                   1 rsq     standard   0.0101     7 0.00449 Preproces…
## # … with 40 more rows
…
## i Fold5, Repeat5: preprocessor 1/1

## ✓ Fold5, Repeat5: preprocessor 1/1

## i Fold5, Repeat5: preprocessor 1/1, model 1/1

## ✓ Fold5, Repeat5: preprocessor 1/1, model 1/1

## i Fold5, Repeat5: preprocessor 1/1, model 1/1 (predictions)

#view model metrics
lasso_res %>% collect_metrics()

## # A tibble: 30 × 7
##    penalty .metric .estimator  mean     n std_err .config              
##      <dbl> <chr>   <chr>      <dbl> <int>   <dbl> <chr>                
##  1 0.001   rmse    standard    1.86    25  0.0584 Preprocessor1_Model01
##  2 0.00127 rmse    standard    1.87    25  0.0588 Preprocessor1_Model02
##  3 0.00161 rmse    standard    1.89    25  0.0591 Preprocessor1_Model03
##  4 0.00204 rmse    standard    1.91    25  0.0594 Preprocessor1_Model04
##  5 0.00259 rmse    standard    1.94    25  0.0597 Preprocessor1_Model05
##  6 0.00329 rmse    standard    1.98    25  0.0599 Preprocessor1_Model06
##  7 0.00418 rmse    standard    2.05    25  0.0602 Preprocessor1_Model07
##  8 0.00530 rmse    standard    2.14    25  0.0608 Preprocessor1_Model08
##  9 0.00672 rmse    standard    2.28    25  0.0626 Preprocessor1_Model09
## 10 0.00853 rmse    standard    2.48    25  0.0674 Preprocessor1_Model10
## # … with 20 more rows
…
#tuning with CV and tune_grid
library(tictoc)

tic()
tune_result <- net_workflow %>% 
  tune_grid(folds,
            grid = param_grid,
            metrics = metric_set(rmse))
toc()

## 94.321 sec elapsed

tune_result %>% collect_metrics()

## # A tibble: 1,000 × 8
##     penalty mixture .metric .estimator  mean     n std_err .config              
##       <dbl>   <dbl> <chr>   <chr>      <dbl> <int>   <dbl> <chr>                
##  1 1   e-10       0 rmse    standard    3.44    25  0.0489 Preprocessor1_Model0…
##  2 1.26e-10       0 rmse    standard    3.44    25  0.0489 Preprocessor1_Model0…
##  3 1.59e-10       0 rmse    standard    3.44    25  0.0489 Preprocessor1_Model0…
##  4 2.01e-10       0 rmse    standard    3.44    25  0.0489 Preprocessor1_Model0…
##  5 2.54e-10       0 rmse    standard    3.44    25  0.0489 Preprocessor1_Model0…
##  6 3.20e-10       0 rmse    standard    3.44    25  0.0489 Preprocessor1_Model0…
##  7 4.04e-10       0 rmse    standard    3.44    25  0.0489 Preprocessor1_Model0…
##  8 5.09e-10       0 rmse    standard    3.44    25  0.0489 Preprocessor1_Model0…
##  9 6.43e-10       0 rmse    standard    3.44    25  0.0489 Preprocessor1_Model0…
## 10 8.11e-10       0 rmse    standard    3.44    25  0.0489 Preprocessor1_Model0…
## # … with 990 more rows
…
